…
    ## annotating

``` r
# Output contains:
# distance to 21 closest cell [knn_dist] ;
# the label of the cells [knn_annot] ; 
# Majority agreement of cell type across the 21 cells [annot_call];
# Number of reference cell supporting the majority call [annot_cts]

annotate_out_perCell.df = annotate_out.df %>% group_by(cell_bc) %>% group_by(cell_bc) %>% arrange(-annot_cts) %>% slice(1) %>% ungroup()
annotate_out_perCell.df
```

    ## # A tibble: 7,865 x 5
    ##    cell_bc          knn_annot     knn_dist annot_call annot_cts
    ##    <chr>            <chr>            <dbl> <chr>          <int>
    ##  1 AAACCCAAGATTGTGA bMonocytes 0.000000561 bMonocytes        21
    ##  2 AAACCCACATCGGTTA bMonocytes 0.000166    bMonocytes        21
    ##  3 AAACCCAGTACCGCGT tMoMacDC   0.0123      tMoMacDC          21
    ##  4 AAACCCAGTATCGAAA tB cells   0.0163      bNK cells          7
    ##  5 AAACCCAGTCGTCATA bNK cells  0.000114    bNK cells         12
    ##  6 AAACCCAGTCTACACA tMoMacDC   0.00991     bMonocytes        20
    ##  7 AAACCCAGTGCAAGAC bMonocytes 0.0000169   bMonocytes        21
    ##  8 AAACCCAGTGCATTTG tMoMacDC   0.0225      bMonocytes        20
    ##  9 AAACCCATCCGATGTA bT cells   0.00607     bT cells          16
    ## 10 AAACCCATCTCAACGA bNK cells  0.00000552  bT cells          16
    ## # ... with 7,855 more rows
